{
	"http-basic": {
		"premium.wpmudev.org": {
			"username": "86bf8614f5bf9d76218ace8bce833369da6a0e5a",
			"password": null
		},
		"wpmudev.com": {
			"username": "86bf8614f5bf9d76218ace8bce833369da6a0e5a",
			"password": null
		},
		"bone-digital.repo.repman.io": {
			"username": "token",
			"password": "946cad8d2a0cef076b3a5e3050dbeb65356637df1abd6893be7df6902bebd1bc"
		}
	}
}
