<?xml version="1.0" encoding="utf-8"?>
<!-- Generator: Adobe Illustrator 24.3.0, SVG Export Plug-In . SVG Version: 6.00 Build 0)  -->
<svg version="1.1" id="Layer_1" xmlns="http://www.w3.org/2000/svg" xmlns:xlink="http://www.w3.org/1999/xlink" x="0px" y="0px"
	 viewBox="0 0 1 20" style="enable-background:new 0 0 1 20;" xml:space="preserve">
<style type="text/css">
	.st0{fill:#D3D626;}
</style>
<g>
	<rect class="st0" width="1" height="20"/>
</g>
</svg>
