{
    "key": "group_5e913475b112f",
    "title": "Page Builder Sample - Modules",
    "fields": [
        {
            "key": "field_5e913475e10b9",
            "label": "Modules",
            "name": "modules",
            "type": "flexible_content",
            "instructions": "",
            "required": 0,
            "conditional_logic": 0,
            "wrapper": {
                "width": "",
                "class": "",
                "id": ""
            },
            "layouts": {
                "layout_5d844c1ab282d": {
                    "key": "layout_5d844c1ab282d",
                    "name": "one_column",
                    "label": "One Column",
                    "display": "block",
                    "sub_fields": [
                        {
                            "key": "field_5e913475e9ddb",
                            "label": "Content",
                            "name": "content",
                            "type": "wysiwyg",
                            "instructions": "",
                            "required": 0,
                            "conditional_logic": 0,
                            "wrapper": {
                                "width": "",
                                "class": "",
                                "id": ""
                            },
                            "default_value": "",
                            "tabs": "all",
                            "toolbar": "full",
                            "media_upload": 1,
                            "delay": 0
                        }
                    ],
                    "min": "",
                    "max": ""
                },
                "layout_5d8436520a895": {
                    "key": "layout_5d8436520a895",
                    "name": "two_column",
                    "label": "Two Column",
                    "display": "block",
                    "sub_fields": [
                        {
                            "key": "field_5e913475ea1d8",
                            "label": "Column 1",
                            "name": "column_1",
                            "type": "wysiwyg",
                            "instructions": "",
                            "required": 0,
                            "conditional_logic": 0,
                            "wrapper": {
                                "width": "50",
                                "class": "",
                                "id": ""
                            },
                            "default_value": "",
                            "tabs": "all",
                            "toolbar": "full",
                            "media_upload": 1,
                            "delay": 0
                        },
                        {
                            "key": "field_5e913475ea586",
                            "label": "Column 2",
                            "name": "column_2",
                            "type": "wysiwyg",
                            "instructions": "",
                            "required": 0,
                            "conditional_logic": 0,
                            "wrapper": {
                                "width": "50",
                                "class": "",
                                "id": ""
                            },
                            "default_value": "",
                            "tabs": "all",
                            "toolbar": "full",
                            "media_upload": 1,
                            "delay": 0
                        }
                    ],
                    "min": "",
                    "max": ""
                }
            },
            "button_label": "Add Module",
            "min": "",
            "max": ""
        }
    ],
    "location": [
        [
            {
                "param": "post_type",
                "operator": "==",
                "value": "page"
            }
        ]
    ],
    "menu_order": 0,
    "position": "normal",
    "style": "default",
    "label_placement": "top",
    "instruction_placement": "label",
    "hide_on_screen": [
        "the_content"
    ],
    "active": 0,
    "description": "",
    "modified": 1588746922
}